-----------------------
Futurize Tests Starting
-----------------------

Python Environment Setup Start


Python Environment Setup Complete


Running on local files in glideinwms subdirectory (LOCAL)


Now running test


There are 1 files that need to be refactored
ERROR: Futurize CRASHED while analyzing branch LOCAL
More than 1 files may need to be refactored


Complete with branch LOCAL (ec:301)


Logs are in /test_dir/output/v36_24391/futurize

-----------------------
Futurize Tests Complete - Failed
-----------------------
